32KiB,64KiB,128KiB,256KiB,512KiB
152.79999999701977,111.80000001192093,152.59999999403954,215.1000000089407,290.90000000596046
46.400000005960464,52.8999999910593,85,114.09999999403954,201.69999998807907
46.29999999701977,51.70000000298023,85.30000001192093,114.90000000596046,203.79999999701977
48.19999998807907,56.29999999701977,68.5,112.3999999910593,203.3999999910593
46.3999999910593,51.70000000298023,79,124.69999998807907,233.6000000089407
47.29999999701977,51.80000001192093,72.79999999701977,140.5,438.40000000596046
46.70000000298023,57.400000005960464,72.69999998807907,152.6000000089407,679.4000000059605
46.70000000298023,51.80000001192093,112.19999998807907,152.3999999910593,1326
46.70000000298023,61.400000005960464,85,199.19999998807907,1222
47.20000000298023,58.1000000089407,92.3999999910593,173.1000000089407,927
46.69999998807907,54.8999999910593,106.6000000089407,168.29999999701977,1082.2999999970198
46.3999999910593,58.70000000298023,145.29999999701977,187.59999999403954,1019.3999999910593
46.20000000298023,72.19999998807907,125.90000000596046,230.8999999910593,860.5
46.6000000089407,56.900000005960464,184.5,295.29999999701977,778.5
319.29999999701977,56.79999999701977,415.29999999701977,358.70000000298023,774.6000000089407
86.40000000596046,56.29999999701977,232.20000000298023,407.59999999403954,895.6000000089407
47.29999999701977,72.59999999403954,137.09999999403954,547.9000000059605,837.1999999880791
66.29999999701977,70.59999999403954,134.09999999403954,594.5,1119.7000000029802
66.70000000298023,56.599999994039536,130.5,552.1000000089407,1060.3999999910593
86.40000000596046,55.400000005960464,113.29999999701977,638.3000000119209,978.9000000059605
67.6000000089407,57.20000000298023,148.90000000596046,570.2999999970198,851.7000000029802
67.1000000089407,55.70000000298023,148.90000000596046,452.90000000596046,603.5
311.80000001192093,60.900000005960464,167.70000000298023,755,598
68.09999999403954,72.1000000089407,189.79999999701977,583.7999999970198,779.7999999970198
108.59999999403954,73.5,170,680.9000000059605,980
129.59999999403954,105.20000000298023,271.70000000298023,793.7000000029802,939.2999999970198
107.19999998807907,76.79999999701977,296.59999999403954,593.5,1375.300000011921
87.3999999910593,160.5,222.79999999701977,430.80000001192093,958.2999999970198
69.40000000596046,147.5,220.09999999403954,397.80000001192093,1037.300000011921
67.30000001192093,149.29999999701977,190.59999999403954,491.79999999701977,1097.3999999910593
68.5,152.79999999701977,247.70000000298023,432.09999999403954,1203.0999999940395
85.09999999403954,148.70000000298023,249.5,493.19999998807907,1400.1000000089407
64.1000000089407,152.20000000298023,213.20000000298023,554.1000000089407,1224.4000000059605
50.599999994039536,128.5,208,515.9000000059605,1307.7999999970198
47.6000000089407,137.5,268.8999999910593,434.59999999403954,1317
48.599999994039536,404.29999999701977,369.6000000089407,409,1017.7999999970198
51.29999999701977,288.3999999910593,492.20000000298023,482.30000001192093,1080
47.8999999910593,206.6000000089407,385.59999999403954,473.59999999403954,901.1000000089407
47.3999999910593,206.5,285.70000000298023,369.1000000089407,878.5999999940395
47.29999999701977,166.6000000089407,250.79999999701977,315,1002.2999999970198
48.3999999910593,165.20000000298023,328.3999999910593,296.80000001192093,921.9000000059605
67.5,162.79999999701977,326.6000000089407,446.5,1001.5
63.70000000298023,163.3999999910593,268.20000000298023,642.2000000029802,973.3999999910593
123.29999999701977,163.5,247.90000000596046,555.5999999940395,981.7000000029802
85,148.5,232.09999999403954,614.2000000029802,737.1999999880791
104.1000000089407,128,252,514.7999999970198,764.7000000029802
102.40000000596046,107.70000000298023,264.59999999403954,495.20000000298023,817.2999999970198
101.8999999910593,106.59999999403954,228.79999999701977,411.29999999701977,1246.4000000059605
68,88.59999999403954,208.90000000596046,395.70000000298023,956.7999999970198
68,88.79999999701977,189,559,938.9000000059605
65.30000001192093,86.79999999701977,435.70000000298023,451.3999999910593,1241.2000000029802
65.3999999910593,330.8999999910593,175.29999999701977,536.2000000029802,1746.2999999970198
64.5,106.1000000089407,170.1000000089407,556.7000000029802,1200.1000000089407
63.69999998807907,108.3999999910593,168.29999999701977,590.1000000089407,1078
63.099999994039536,162.59999999403954,170.1000000089407,570.5999999940395,1403.0999999940395
64.19999998807907,166.8999999910593,206.70000000298023,471.40000000596046,998.5
64.09999999403954,164.30000001192093,266.6000000089407,533.4000000059605,1200.2000000029802
63.30000001192093,150,267.70000000298023,513.3999999910593,917.7000000029802
65,130.90000000596046,249.29999999701977,431.5,695.7000000029802
63.900000005960464,108.79999999701977,227,329,759.8999999910593
62.79999999701977,107.20000000298023,205.40000000596046,274.29999999701977,1004.7999999970198
62.29999999701977,106.1000000089407,205.6000000089407,330.70000000298023,1018.5999999940395
62.70000000298023,88.70000000298023,204.5,449.29999999701977,965.2000000029802
64.5,87.3999999910593,232,468.8999999910593,912.7000000029802
81.70000000298023,103.09999999403954,219.59999999403954,451.69999998807907,918.1999999880791
82.09999999403954,102.79999999701977,191.70000000298023,491.19999998807907,1154.0999999940395
64,106.29999999701977,189,508.5,1138.8999999910593
65.1000000089407,105,208.29999999701977,411,967
62.79999999701977,89.30000001192093,266.69999998807907,471,1221.5
63,88.5,269.90000000596046,612.6000000089407,1079.2999999970198
64.6000000089407,87.40000000596046,268.09999999403954,610.2999999970198,816.4000000059605
64,87.70000000298023,245.09999999403954,498.59999999403954,900.5
62,105.5,229.59999999403954,784,856.8999999910593
62,90,413.70000000298023,600.5999999940395,1165
61.70000000298023,88.79999999701977,428.09999999403954,514.9000000059605,1224
61.900000005960464,109.30000001192093,388.79999999701977,412.8999999910593,1028.2000000029802
61.79999999701977,123.09999999403954,314.30000001192093,455.90000000596046,1067
61.19999998807907,143.59999999403954,311.29999999701977,597.4000000059605,938.9000000059605
61,143.6000000089407,369.20000000298023,473.20000000298023,740.7999999970198
61.70000000298023,128.5,428,456.09999999403954,716
82.8999999910593,146.1000000089407,345.3999999910593,592.5,965.8999999910593
81.6000000089407,144,386.90000000596046,477.79999999701977,1095.2999999970198
82.70000000298023,127.20000000298023,267.80000001192093,434.09999999403954,1491
65.1000000089407,145.29999999701977,227.70000000298023,543,1058.4000000059605
64.5,144.09999999403954,228.1000000089407,473.79999999701977,1182.300000011921
64.79999999701977,144.8999999910593,225.29999999701977,540.7999999970198,773.2000000029802
64.20000000298023,146.70000000298023,344.80000001192093,395.6000000089407,940
63.599999994039536,123.30000001192093,307.29999999701977,374.79999999701977,977
64.5,154,263.59999999403954,373,1020.3000000119209
63.69999998807907,128.70000000298023,210.19999998807907,453.5,814.7000000029802
65.40000000596046,146,264.80000001192093,408,1230.2000000029802
82.09999999403954,143.5,368.79999999701977,298.90000000596046,995.1000000089407
63.599999994039536,146,369.09999999403954,291.20000000298023,836.5
63.5,145,313.40000000596046,297.3999999910593,700.5999999940395
64.29999999701977,196.20000000298023,275.20000000298023,286,833.9000000059605
64.6000000089407,165.30000001192093,353.29999999701977,594.8999999910593,1017.8999999910593
62.79999999701977,144.1000000089407,387.20000000298023,455.40000000596046,775.5
62.5,504.6000000089407,326.70000000298023,496.70000000298023,960.3000000119209
66.3999999910593,183.90000000596046,268.20000000298023,595.7000000029802,1057.5
64.70000000298023,395.20000000298023,245.59999999403954,539.4000000059605,1165.5
64,229.59999999403954,366.20000000298023,530.9000000059605,1234.2999999970198
64.70000000298023,203.09999999403954,327.79999999701977,498,1244.5
82.69999998807907,184.59999999403954,327,466.90000000596046,855.2000000029802
84.29999999701977,165.70000000298023,266.29999999701977,419.09999999403954,983
84.1000000089407,164.09999999403954,231.69999998807907,483.59999999403954,817.9000000059605
102.90000000596046,187.70000000298023,226.1000000089407,493.59999999403954,817.5
101.80000001192093,207,189.1000000089407,415.09999999403954,642
84,224.90000000596046,205.5,370.29999999701977,776.7000000029802
65.40000000596046,184.29999999701977,203.70000000298023,431.59999999403954,1181.7999999970198
65.80000001192093,149,208.70000000298023,377.40000000596046,1254.9000000059605
66.40000000596046,148,205.8999999910593,376.79999999701977,1188.2000000029802
64.3999999910593,206,190.5,356.70000000298023,1185.5
84.70000000298023,224,252.59999999403954,456.19999998807907,845.5999999940395
83.79999999701977,185.29999999701977,367.79999999701977,392.90000000596046,1055.5
103,184.70000000298023,267.70000000298023,489,837.5
85.79999999701977,157.79999999701977,266.5,651,1605.9000000059605
87.79999999701977,164.59999999403954,244.3999999910593,513.5,1259.8999999910593
84.29999999701977,167.29999999701977,212.59999999403954,491.70000000298023,1081.1000000089407
141.29999999701977,209,226.6000000089407,431.40000000596046,1245
184.09999999403954,185.79999999701977,187.5,556,1121.7999999970198
164.79999999701977,147.70000000298023,212.29999999701977,530.2000000029802,1116.7000000029802
109.09999999403954,144.8999999910593,248,390.6000000089407,1181.3999999910593
104.70000000298023,457.20000000298023,210.40000000596046,318.09999999403954,1284.2999999970198
122.40000000596046,204.40000000596046,228.1000000089407,354.90000000596046,1137.5
102.70000000298023,165,234,339.20000000298023,775.6000000089407
103.29999999701977,145,209.90000000596046,333.80000001192093,778.4000000059605
122,145.6000000089407,274.3999999910593,531.7000000029802,644.5999999940395
102.09999999403954,146.19999998807907,245.09999999403954,472.20000000298023,708.4000000059605
86.29999999701977,147.79999999701977,229.20000000298023,392.40000000596046,858.3999999910593
103.6000000089407,169.30000001192093,306.8999999910593,593.7999999970198,1132.300000011921
104.59999999403954,145.3999999910593,247.59999999403954,477.5,1021.2999999970198
84.09999999403954,144.1000000089407,207.5,480.20000000298023,964.5
104.5,127.09999999403954,187.70000000298023,573.5,1142.6000000089407
84.90000000596046,125.3999999910593,185.70000000298023,476,976.8999999910593
83.70000000298023,124.29999999701977,226.70000000298023,456.20000000298023,1037.2000000029802
82.90000000596046,123.09999999403954,368.70000000298023,613.7000000029802,1221.2999999970198
102.8999999910593,104.20000000298023,331.90000000596046,820,856
83.79999999701977,88.59999999403954,308.80000001192093,793.7000000029802,1299.2000000029802
84.40000000596046,88.5,249.6000000089407,782.2999999970198,1163.3999999910593
83.09999999403954,86.59999999403954,328.3999999910593,629.9000000059605,920.2999999970198
82,88.6000000089407,247.5,559.6000000089407,1120.699999988079
64.69999998807907,123,207,452.1000000089407,1199.7000000029802
64.20000000298023,106.29999999701977,170.40000000596046,513.2000000029802,1346.4000000059605
64.20000000298023,105.80000001192093,190,614.9000000059605,1361.8999999910593
65.5,103.79999999701977,208.5,473.40000000596046,1099.199999988079
63.29999999701977,103,211.6000000089407,379.69999998807907,799.2999999970198
325.40000000596046,107.1000000089407,231.59999999403954,433.8999999910593,800.4000000059605
107.3999999910593,104.29999999701977,229.79999999701977,453.3999999910593,719.7999999970198
67.09999999403954,88.8999999910593,228.40000000596046,408.40000000596046,737.1000000089407
83.29999999701977,88.79999999701977,271.70000000298023,331.90000000596046,1052
83.5,88.70000000298023,293.90000000596046,374.5,1002.4000000059605
67.3999999910593,123.90000000596046,330.69999998807907,372.3999999910593,766.5999999940395
64.30000001192093,182.20000000298023,270.90000000596046,397.29999999701977,1180.7000000029802
64.09999999403954,145.79999999701977,208.1000000089407,531.1000000089407,1058.8999999910593
63.8999999910593,184.90000000596046,250.40000000596046,435.20000000298023,1364.2999999970198
62.8999999910593,164.40000000596046,228.70000000298023,535.0999999940395,916.5999999940395
63,147.1000000089407,226.09999999403954,759.2000000029802,1021.7999999970198
64.40000000596046,148.79999999701977,190.20000000298023,632.5999999940395,1079.2000000029802
65,148.3999999910593,184.6000000089407,793,1060.0999999940395
49.400000005960464,127,172.09999999403954,629,1041.5999999940395
47.5,148.40000000596046,190.90000000596046,897.2000000029802,757.2000000029802
47.5,148.59999999403954,169.20000000298023,671.4000000059605,733.6999999880791
48.6000000089407,144,166.29999999701977,532.7999999970198,815.6999999880791
67.40000000596046,125.79999999701977,147.29999999701977,615.0999999940395,1123.7000000029802
85.30000001192093,106,131.8999999910593,953.5,758.3000000119209
92.40000000596046,103.5,169.20000000298023,733.5999999940395,739.1000000089407
103.5,108.69999998807907,270.70000000298023,531.7000000029802,943.1000000089407
84,124.8999999910593,289.90000000596046,617.7999999970198,1144.7000000029802
82.40000000596046,144.29999999701977,231.59999999403954,511.29999999701977,1135.7999999970198
81.5,126.3999999910593,186.20000000298023,552.5999999940395,1245.7000000029802
82.70000000298023,163.5,253.79999999701977,533.9000000059605,1247.9000000059605
64.29999999701977,146.19999998807907,266.79999999701977,490.70000000298023,1231.4000000059605
82.5,164.6000000089407,226,375.20000000298023,1138
81.5,164.90000000596046,230,337.29999999701977,1124.800000011921
81.70000000298023,213.70000000298023,254.3999999910593,541.5,1186.2000000029802
81.40000000596046,184.90000000596046,304.79999999701977,451.5,1160.6000000089407
64.09999999403954,163.79999999701977,293.20000000298023,403.5,998.2000000029802
48.6000000089407,164.29999999701977,266.29999999701977,858.5,1062.7999999970198
48.20000000298023,208.90000000596046,247.70000000298023,640.5999999940395,1483.6000000089407
48.5,226.1000000089407,223.79999999701977,606.6000000089407,924.5
47.29999999701977,185.29999999701977,226.8999999910593,517.6000000089407,822.1999999880791
95,162.90000000596046,223.79999999701977,552.7000000029802,1119.8999999910593
67,143.29999999701977,209.5,601.7999999970198,909.2000000029802
66.29999999701977,127.90000000596046,189.19999998807907,531.2999999970198,1243.2000000029802
69.5,106.29999999701977,184.29999999701977,493.70000000298023,1507.3999999910593
69,105.69999998807907,174.20000000298023,539.3000000119209,1282.9000000059605
67,105.20000000298023,299,494.79999999701977,717.2999999970198
65.70000000298023,105.8999999910593,308,572.5,1269.2000000029802
64.79999999701977,122.09999999403954,246.59999999403954,574.9000000059605,1080.2999999970198
64,124.5,189.80000001192093,493.40000000596046,1345.0999999940395
64.29999999701977,106.90000000596046,281.40000000596046,490.20000000298023,1299.5
62.900000005960464,106.59999999403954,268.90000000596046,427.3999999910593,1039
62.70000000298023,106.59999999403954,269.29999999701977,468.5,1061.9000000059605
62.29999999701977,104.20000000298023,285,496.69999998807907,805.7999999970198
64.90000000596046,103.70000000298023,270.20000000298023,595.2000000029802,912.4000000059605
63.5,88.8999999910593,289.70000000298023,675.7999999970198,1276.4000000059605
63.29999999701977,86.79999999701977,228,474.40000000596046,1414.2000000029802
62.900000005960464,71,246.8999999910593,448.6000000089407,1198
63,74.1000000089407,208,449,1299.3999999910593
62.29999999701977,77.8999999910593,186.29999999701977,498.70000000298023,1037.2999999970198
105,75.1000000089407,183.29999999701977,694.6999999880791,942.5999999940395
121.79999999701977,90.09999999403954,171.29999999701977,498.90000000596046,1246.9000000059605
85.70000000298023,105.69999998807907,188.20000000298023,371.20000000298023,974.5
103,108.69999998807907,192.70000000298023,607.5999999940395,985.7999999970198
102.20000000298023,123.6000000089407,172,631.5,958
83.3999999910593,122.3999999910593,166,638.9000000059605,1022.2000000029802
66,125.09999999403954,151.40000000596046,472.20000000298023,880.0999999940395
65.30000001192093,128,168.5,472.3999999910593,1002.5
64.70000000298023,126.5,169.29999999701977,448.5,1060.7999999970198
66.5,142,188.40000000596046,617,940.5
82.59999999403954,145.6000000089407,208.40000000596046,512.6000000089407,836.2000000029802
84.09999999403954,125.5,327,534.3000000119209,902.5
65.80000001192093,123.80000001192093,248,447.5,1002.4000000059605
64.80000001192093,146.1000000089407,206.20000000298023,672.6999999880791,1327.5999999940395
64.20000000298023,145.19999998807907,194.09999999403954,612.3999999910593,936.2999999970198
64.70000000298023,143.5,187.09999999403954,737,914.7000000029802
65.29999999701977,124.3999999910593,184.59999999403954,694.2000000029802,1271.5999999940395
88.20000000298023,107,190.40000000596046,532.3999999910593,1304.9000000059605
82,370.90000000596046,228.90000000596046,476.09999999403954,832
64.20000000298023,125,187.3999999910593,533.2999999970198,961.9000000059605
63.20000000298023,123.5,203,778.5,1171.5
84.70000000298023,105.5,208.5,954.2999999970198,837.9000000059605
86.69999998807907,107,269.79999999701977,773.2000000029802,720
84,105.8999999910593,246.40000000596046,754,903.5
104.40000000596046,108.5,267.40000000596046,700.1000000089407,1093.9000000059605
84.70000000298023,162,346.59999999403954,590.5,1023.4000000059605
84.20000000298023,165.1000000089407,318.6000000089407,409.79999999701977,980.7000000029802
102.1000000089407,303.69999998807907,229.90000000596046,458.5,760
124.70000000298023,344.79999999701977,191.90000000596046,553.9000000059605,1379.7999999970198
84.8999999910593,186.90000000596046,230.19999998807907,430.09999999403954,1240.2000000029802
83.59999999403954,163.5,273.09999999403954,550.2999999970198,1308.2000000029802
102.40000000596046,163.20000000298023,249.29999999701977,633.2999999970198,1267.2000000029802
85.1000000089407,204.90000000596046,270.29999999701977,691.4000000059605,1288.7000000029802
85.29999999701977,224.40000000596046,369.79999999701977,750.4000000059605,940.9000000059605
85.90000000596046,183.5,329.3999999910593,792.2000000029802,978.8999999910593
65.19999998807907,146.70000000298023,247.59999999403954,771.2000000029802,961.2000000029802
64.69999998807907,142.70000000298023,348.90000000596046,471.59999999403954,917.8999999910593
63.900000005960464,125.3999999910593,325.09999999403954,428.29999999701977,1073.8999999910593
64,144.1000000089407,246.70000000298023,427.90000000596046,1403.4000000059605
63.599999994039536,125.29999999701977,246.79999999701977,552,1525.1000000089407
62.79999999701977,126.8999999910593,310.79999999701977,514.7000000029802,1137.2000000029802
62.3999999910593,125.79999999701977,388.09999999403954,470.5,989.1000000089407
62.79999999701977,107.79999999701977,285.90000000596046,389.20000000298023,1081.199999988079
62.1000000089407,105.90000000596046,315.29999999701977,434.09999999403954,901.8999999910593
63.1000000089407,104.29999999701977,304.29999999701977,509.29999999701977,1422.7000000029802
62.20000000298023,104.29999999701977,226.20000000298023,595.2000000029802,958.9000000059605
61.6000000089407,102.09999999403954,205.69999998807907,613.2000000029802,1249.2000000029802
61.6000000089407,109.5,271.30000001192093,532.2999999970198,895.5999999940395
61.29999999701977,168.19999998807907,494.40000000596046,373.70000000298023,1042.7000000029802
61.29999999701977,164,311.1000000089407,370.70000000298023,927.1000000089407
61.20000000298023,145.79999999701977,561.1000000089407,333.09999999403954,1139.2999999970198
63.70000000298023,146.3999999910593,470.59999999403954,275.40000000596046,959.9000000059605
83.59999999403954,147.29999999701977,324.90000000596046,392.59999999403954,956.4000000059605
63.79999999701977,147.59999999403954,287.5,633.6999999880791,938
69.5,126,306.19999998807907,574.4000000059605,740.1000000089407
64.40000000596046,127.1000000089407,245.79999999701977,775.9000000059605,897.2000000029802
62.900000005960464,143.09999999403954,206.09999999403954,619.4000000059605,1046.2999999970198
64.5,124.20000000298023,248.30000001192093,676.7000000029802,1789.7999999970198
64.09999999403954,107.8999999910593,249.30000001192093,591.4000000059605,1016.5999999940395
83.5,109.09999999403954,232,470.09999999403954,1066.1000000089407
64.90000000596046,128.70000000298023,287.70000000298023,529.4000000059605,1203.2000000029802
66.8999999910593,146.3999999910593,351.29999999701977,512.5,1241.3999999910593
315,125.90000000596046,285.79999999701977,498.1000000089407,1059.1000000089407
88,107.29999999701977,269.40000000596046,430.20000000298023,1205.7999999970198
84,105,211.5,495.20000000298023,1220.9000000059605
66.20000000298023,187.59999999403954,205.29999999701977,409.20000000298023,1279.5
66.20000000298023,105.20000000298023,187.79999999701977,595,1078.1000000089407
65,103.8999999910593,248.70000000298023,674.4000000059605,1178.7000000029802
65.40000000596046,124.09999999403954,287.90000000596046,610.7000000029802,737.9000000059605
64.29999999701977,183.90000000596046,272.5,655.5999999940395,1158.5
63.900000005960464,162.59999999403954,224.30000001192093,673.9000000059605,961.7999999970198
68.20000000298023,127.5,212,630.3999999910593,998
65.29999999701977,110,230.5,635.5,980.0999999940395
64.40000000596046,106.3999999910593,230.90000000596046,716.2000000029802,969.2999999970198
64.3999999910593,110.79999999701977,269.09999999403954,450.19999998807907,925.7999999970198
63.599999994039536,110,268.59999999403954,476.69999998807907,1258.7000000029802
63.599999994039536,146.70000000298023,227.5,695.2999999970198,1058.2000000029802
63.29999999701977,205,228.29999999701977,620,1106.3999999910593
63.70000000298023,204.59999999403954,267.90000000596046,552.2000000029802,1007.7000000029802
81.79999999701977,162.19999998807907,286.09999999403954,528.4000000059605,739.7000000029802
82.29999999701977,142.70000000298023,266.29999999701977,453.90000000596046,869.7000000029802
64.09999999403954,109.29999999701977,228.5,393.20000000298023,681.2000000029802
82.70000000298023,433.6000000089407,208.20000000298023,474.79999999701977,701.7000000029802
102.90000000596046,203.69999998807907,370.79999999701977,532.2000000029802,1038.0999999940395
105.5,204.40000000596046,348,437.5,1189
83.90000000596046,165.40000000596046,327,614.5,925.4000000059605
84.8999999910593,164.3999999910593,350.40000000596046,790.2999999970198,819.3999999910593
82.5,126.40000000596046,370.40000000596046,693.7000000029802,618.4000000059605
84.20000000298023,143.8999999910593,366.09999999403954,592.7000000029802,955.7000000029802
83.09999999403954,146.70000000298023,269.30000001192093,693.8999999910593,1060.5
83.5,146.20000000298023,249.5,836.2999999970198,1156.5999999940395
101.90000000596046,143.69999998807907,291.5,595.3000000119209,1178.5999999940395
85.69999998807907,123.90000000596046,289.29999999701977,594.6999999880791,792.7000000029802
103.5,105.80000001192093,349.19999998807907,529,712.5
84.5,104.29999999701977,516.4000000059605,574.5999999940395,890.8000000119209
82.6000000089407,103.80000001192093,443.1000000089407,678.7000000029802,915.7999999970198
83.1000000089407,102.3999999910593,507.8999999910593,636.2999999970198,1264.9000000059605
70.20000000298023,101.70000000298023,425.90000000596046,530.7999999970198,1224.8999999910593
73,109.6000000089407,287.29999999701977,492.5,1265.2999999970198
108.5,106.19999998807907,250.79999999701977,656.8999999910593,1063.2999999970198
104.09999999403954,106.09999999403954,245.5,472.70000000298023,1090.2999999970198
107,127.29999999701977,268.59999999403954,480.30000001192093,1437.2999999970198
144.70000000298023,166.3999999910593,225.40000000596046,406.5,1120.199999988079
104.70000000298023,245.79999999701977,231.79999999701977,414.09999999403954,1461.7999999970198
103.79999999701977,205.1000000089407,269.59999999403954,594.3000000119209,945.8999999910593
84,156.79999999701977,267.6000000089407,450.1000000089407,698.2999999970198
83.5,151.70000000298023,228.8999999910593,429,1036.0999999940395
85.20000000298023,145.6000000089407,310.59999999403954,351.79999999701977,984.2999999970198
66.29999999701977,125.70000000298023,310.20000000298023,291,797.7999999970198
66.29999999701977,108.70000000298023,453.6000000089407,331.5,920.6000000089407
85.40000000596046,127.5,410.20000000298023,330.79999999701977,1255.5
84.40000000596046,124.90000000596046,291.3999999910593,332.5,889.7999999970198
83.29999999701977,127.3999999910593,230.29999999701977,406.20000000298023,1128.0999999940395
83.59999999403954,106,204.90000000596046,412.79999999701977,898.8999999910593
64.80000001192093,103.79999999701977,170.79999999701977,448.3999999910593,744.5
65.59999999403954,87.8999999910593,205.79999999701977,410.70000000298023,1081
64.6000000089407,87.59999999403954,226,551.5999999940395,925.3999999910593
64.6000000089407,123.8999999910593,226,855.2000000029802,863.7999999970198
64,145.09999999403954,267.1000000089407,715.3999999910593,906.2999999970198
102.5,150.5,304.5,666.1000000089407,919.6000000089407
63.79999999701977,145.90000000596046,305.29999999701977,635.3999999910593,977.7999999970198
63.5,144.5,307.20000000298023,637.9000000059605,779.9000000059605
81.79999999701977,129,270.40000000596046,579.5,925.5999999940395
112.69999998807907,143.8999999910593,308.70000000298023,537.0999999940395,896.2000000029802
85.20000000298023,112.80000001192093,285.59999999403954,533.8999999910593,922.0999999940395
86.20000000298023,106.09999999403954,248.40000000596046,572.5999999940395,1055.7000000029802
83.40000000596046,105.5,267.70000000298023,593.8000000119209,1136.8999999910593
83.90000000596046,107.29999999701977,246.20000000298023,408.5,1101.5999999940395
83.40000000596046,125.09999999403954,206.09999999403954,373.20000000298023,902.0999999940395
64.90000000596046,123.20000000298023,170.59999999403954,679.7999999970198,894.0999999940395
64.29999999701977,89.6000000089407,207.09999999403954,657.5,903.5999999940395
63.80000001192093,109.20000000298023,186.70000000298023,619,794.6000000089407
111.3999999910593,108.59999999403954,205.90000000596046,552.6999999880791,837.2999999970198
102.80000001192093,107.20000000298023,211.59999999403954,448.5,796.7999999970198
84.20000000298023,88.79999999701977,270.30000001192093,635.0999999940395,839.5999999940395
84.09999999403954,127.90000000596046,370.70000000298023,672.3999999910593,922.7000000029802
85.20000000298023,167.70000000298023,314.79999999701977,701.7000000029802,1081.5
84.70000000298023,166.69999998807907,374,694,1155
66,166,427.20000000298023,608.7999999970198,1041.7999999970198
65.8999999910593,144.40000000596046,391.19999998807907,554.1000000089407,1057.5
64.20000000298023,125.80000001192093,328,754.5,881.5
64.20000000298023,107.09999999403954,267.29999999701977,691.1000000089407,1177.5
63.80000001192093,105.59999999403954,268.59999999403954,792.9000000059605,1303.4000000059605
65.29999999701977,104.8999999910593,419.40000000596046,789.5,1162.2999999970198
63.6000000089407,103.70000000298023,366.1000000089407,815.2000000029802,1182.7000000029802
81.70000000298023,105.19999998807907,330.40000000596046,613,1412.5
84,125.29999999701977,246.1000000089407,630.9000000059605,1100.5
81.79999999701977,156.5,190.29999999701977,591.1000000089407,1242.7999999970198
81.29999999701977,125.29999999701977,209.59999999403954,490.79999999701977,998.9000000059605
63.29999999701977,124.19999998807907,269.69999998807907,492.90000000596046,1454.7000000029802
63.900000005960464,125.70000000298023,323.90000000596046,655.5,1227.4000000059605
63.5,143.5,254.09999999403954,510.29999999701977,1100.699999988079
63.5,123.59999999403954,226.90000000596046,394.29999999701977,863.3999999910593
63.099999994039536,122.5,291.5,455,1076.5
62.6000000089407,104.70000000298023,346.09999999403954,451.70000000298023,959.2999999970198
62.79999999701977,89.1000000089407,368.29999999701977,393.09999999403954,1136.5999999940395
61.900000005960464,88.40000000596046,306.20000000298023,575.7000000029802,885.7000000029802
63.29999999701977,87.29999999701977,268.5,651.2000000029802,780.2999999970198
61.70000000298023,86.5,230.20000000298023,813.3000000119209,1222.9000000059605
61.70000000298023,86.8999999910593,269.79999999701977,471.40000000596046,1101.699999988079
61.3999999910593,125.09999999403954,269.79999999701977,568.9000000059605,861.7000000029802
63.099999994039536,124.80000001192093,448.40000000596046,590.1000000089407,1275.4000000059605
61.70000000298023,190.79999999701977,504,651.0999999940395,1361.5
60.79999999701977,126.1000000089407,427.90000000596046,613.8000000119209,1166.5
65,128.20000000298023,373.30000001192093,552.5,1145.2000000029802
65.5,142.5,304.79999999701977,489,781.3000000119209
63.6000000089407,143.30000001192093,267.90000000596046,527.9000000059605,663.5
334.59999999403954,108.70000000298023,305.6000000089407,432.90000000596046,805.2999999970198
104.20000000298023,124.79999999701977,248.1000000089407,454.70000000298023,1085.2999999970198
81.8999999910593,125.1000000089407,226.20000000298023,531.1000000089407,1167.5999999940395
65.70000000298023,124.90000000596046,286.5,548,1236.2999999970198
64.09999999403954,105.40000000596046,269,472.1000000089407,1046.1000000089407
62.8999999910593,123.5,264.79999999701977,489.59999999403954,1273.5
62.30000001192093,113.20000000298023,211.09999999403954,429.5,1570.4000000059605
62.5,151,226.09999999403954,491.80000001192093,1613.2000000029802
66.8999999910593,137.1000000089407,230.29999999701977,915.1000000089407,1241.7000000029802
63.70000000298023,109.29999999701977,228.40000000596046,615.0999999940395,733.7999999970198
62.70000000298023,126.79999999701977,265,619.5,944.5
62.20000000298023,145.6000000089407,308.6000000089407,614.9000000059605,1059.3999999910593
62.29999999701977,145.5,327,475,976.8999999910593
119.79999999701977,125.30000001192093,267.5,409.29999999701977,1073.7000000029802
65.20000000298023,122.90000000596046,243.79999999701977,409.09999999403954,1101
64.20000000298023,104.90000000596046,305.90000000596046,351.30000001192093,956.3000000119209
63.70000000298023,89.29999999701977,288.79999999701977,497.20000000298023,1000.7999999970198
64.20000000298023,89.70000000298023,267.09999999403954,594.1000000089407,1100.9000000059605
62.8999999910593,87.6000000089407,243.09999999403954,614.7999999970198,926.1000000089407
64.5,89.3999999910593,268.5,536.3999999910593,1400.7000000029802
82.6000000089407,85.70000000298023,246,460.70000000298023,1239.0999999940395
64.59999999403954,70.90000000596046,229.59999999403954,569.3999999910593,1102
63.70000000298023,104.80000001192093,348.20000000298023,634.6000000089407,777.1000000089407
84.59999999403954,105.20000000298023,292,595.7000000029802,855.9000000059605
65.79999999701977,104.6000000089407,305.5,662.8999999910593,1023
64,103.6000000089407,307.70000000298023,635.2999999970198,1077.7999999970198
64,87.5,347.29999999701977,654.9000000059605,856.2000000029802
63.900000005960464,87.59999999403954,306.70000000298023,491.59999999403954,927.2999999970198
311.09999999403954,90.70000000298023,246.6000000089407,560.2999999970198,1259.4000000059605
66.69999998807907,110.09999999403954,207.5,651,1166.9000000059605
65.29999999701977,126.69999998807907,232.20000000298023,448.29999999701977,1394.9000000059605
64.6000000089407,107.20000000298023,286.29999999701977,420.40000000596046,1047
64.29999999701977,105.3999999910593,305.40000000596046,479.79999999701977,1151.9000000059605
63.29999999701977,87.90000000596046,284.90000000596046,551.0999999940395,1119.8999999910593
66.90000000596046,87.20000000298023,226.90000000596046,492,1219.9000000059605
65.5,86.09999999403954,225,844.8999999910593,977
63.400000005960464,85,266.70000000298023,572.5,1043.1000000089407
68.6000000089407,85.59999999403954,228.30000001192093,550.2000000029802,1212.7000000029802
65.70000000298023,123.80000001192093,205.29999999701977,577.3999999910593,1162
66,108.8999999910593,208.40000000596046,489.20000000298023,1081.4000000059605
64.8999999910593,125.40000000596046,264.20000000298023,490,1197.7999999970198
64.5,126.5,267.5,389.1000000089407,700.9000000059605
67.6000000089407,143.90000000596046,290.29999999701977,373.30000001192093,758
64.20000000298023,142.70000000298023,369,473.5,845.6000000089407
84.5,125.8999999910593,288.70000000298023,529.5999999940395,1068.7999999970198
85.09999999403954,126.1000000089407,229.90000000596046,409.40000000596046,1422.2000000029802
68.20000000298023,131.29999999701977,207.70000000298023,446.29999999701977,1382.2000000029802
66,125,187.59999999403954,350.90000000596046,1184.2000000029802
65.80000001192093,123.79999999701977,252,359.59999999403954,895.7999999970198
109.29999999701977,147.29999999701977,228.90000000596046,697.9000000059605,1061
103.40000000596046,162.09999999403954,270.20000000298023,624.2000000029802,1084.2000000029802
84.70000000298023,126.3999999910593,497.70000000298023,512.7000000029802,942.5999999940395
89,124.20000000298023,430,457.5,699.1000000089407
66.5,106.20000000298023,369.1000000089407,412.70000000298023,1058.4000000059605
65.59999999403954,108,291.5,390.1000000089407,857.4000000059605
112.1000000089407,104,332.3999999910593,476.70000000298023,1305.7999999970198
83.70000000298023,102.5,247.40000000596046,637.2000000029802,1042.6000000089407
83,87.40000000596046,249,587.3999999910593,1197.300000011921
82.70000000298023,87.20000000298023,272.79999999701977,613.4000000059605,875.4000000059605
63.8999999910593,105.5,249.09999999403954,597.5,917.0999999940395
63.5,108.40000000596046,251.09999999403954,697.0999999940395,859.5
62.8999999910593,106.5,247.20000000298023,615.8999999910593,985.3000000119209
63.3999999910593,108.40000000596046,227.70000000298023,831.5,1103.7999999970198
62.5,105.59999999403954,207.70000000298023,572.0999999940395,978.5
69.29999999701977,108.79999999701977,271.40000000596046,515.7000000029802,953.6000000089407
103.30000001192093,89.59999999403954,344.29999999701977,778.4000000059605,889
101.29999999701977,88.1000000089407,249.79999999701977,838,1101.5
83.40000000596046,106.5,313.79999999701977,593.0999999940395,695
65.69999998807907,105.1000000089407,330.40000000596046,574.0999999940395,684.9000000059605
64.79999999701977,196.5,391.59999999403954,566.4000000059605,720.9000000059605
64.29999999701977,128.8999999910593,346.79999999701977,434.30000001192093,1195.7000000029802
63.80000001192093,123.5,425.59999999403954,387.5,1070
82.20000000298023,122.5,288.29999999701977,386.29999999701977,965.3999999910593
82.5,107,273.40000000596046,389.59999999403954,1574.2999999970198
82.20000000298023,107.59999999403954,265.20000000298023,534,1509.2000000029802
65.1000000089407,106.69999998807907,258.90000000596046,412.20000000298023,1348
65.1000000089407,110.5,258.09999999403954,436.6000000089407,1100
65,125.09999999403954,212.79999999701977,510.90000000596046,1222.8999999910593
64.80000001192093,128.59999999403954,230.3999999910593,490.20000000298023,1121.199999988079
64.79999999701977,147.09999999403954,209.70000000298023,450.40000000596046,816.7999999970198
64.09999999403954,128.90000000596046,247.6000000089407,453,942.6000000089407
64,126.5,306.70000000298023,390.5,940.3999999910593
62.8999999910593,126.79999999701977,373.20000000298023,498.40000000596046,1640.0999999940395
62.79999999701977,105.5,305.70000000298023,411.90000000596046,1305.7999999970198
62.30000001192093,106.70000000298023,230.29999999701977,335.19999998807907,1098.5
61.79999999701977,106.30000001192093,211.6000000089407,294.1000000089407,1378.2000000029802
61.900000005960464,132.20000000298023,229.09999999403954,330.30000001192093,1095.2999999970198
61.400000005960464,130,228.5,575.1999999880791,1060.7999999970198
61.20000000298023,123.8999999910593,205.8999999910593,512.2000000029802,839.4000000059605
61.099999994039536,131.79999999701977,206.8999999910593,392.6000000089407,652.6999999880791
61.900000005960464,112.59999999403954,225.79999999701977,334.5,804.1000000089407
62,147.29999999701977,227.8999999910593,611.2999999970198,1083
81.09999999403954,184.1000000089407,223.40000000596046,692,813
65.8999999910593,226.79999999701977,247.90000000596046,509.20000000298023,1502.0999999940395
63.400000005960464,168.5,273,693.1000000089407,1100.2999999970198
104.09999999403954,145.40000000596046,331.6000000089407,531.3999999910593,1292.6000000089407
101.5,126.09999999403954,329.59999999403954,611.5999999940395,1590.2000000029802
142,125.09999999403954,305.79999999701977,470.3999999910593,1161.7999999970198
84.19999998807907,122.1000000089407,328.90000000596046,537.7000000029802,1150.2999999970198
104.69999998807907,106.20000000298023,330.29999999701977,1054.5,840.8999999910593
103.19999998807907,90.5,328.90000000596046,560.9000000059605,959.2000000029802
102.79999999701977,89.70000000298023,248.79999999701977,456.20000000298023,1018.2999999970198
83.30000001192093,88.40000000596046,247.90000000596046,498.09999999403954,1245.6000000089407
82.40000000596046,86.09999999403954,210.90000000596046,392,1035.300000011921
64.30000001192093,70.90000000596046,290.29999999701977,334.59999999403954,1289
83.70000000298023,71.09999999403954,287.40000000596046,508.59999999403954,1060.5
64.79999999701977,157.69999998807907,328.1000000089407,617.2000000029802,917.2000000029802
83.79999999701977,89.40000000596046,247.59999999403954,618.9000000059605,915.3999999910593
84.30000001192093,108.09999999403954,285.09999999403954,534,1228.7000000029802
83.59999999403954,103.29999999701977,384.79999999701977,549.8999999910593,1469.300000011921
64.90000000596046,88.79999999701977,344.09999999403954,635.6999999880791,1100.5999999940395
64.29999999701977,87.19999998807907,285.70000000298023,594.7000000029802,877.1999999880791
129.70000000298023,88.79999999701977,308.70000000298023,731.2000000029802,1045.2000000029802
102.20000000298023,92.20000000298023,290.29999999701977,698.7999999970198,1263.5
102.5,89.20000000298023,346,693.4000000059605,1326.2000000029802
83.1000000089407,89.59999999403954,325.29999999701977,714,840.5999999940395
83.79999999701977,124.79999999701977,296.30000001192093,493.70000000298023,793.5
83.40000000596046,126.20000000298023,329.70000000298023,470.5,1002.7999999970198
84.79999999701977,123.20000000298023,265.79999999701977,438.19999998807907,1042
84.79999999701977,104.20000000298023,268.80000001192093,549.4000000059605,943.1999999880791
82.29999999701977,103.79999999701977,209.20000000298023,693.5,925.3999999910593
64.70000000298023,90.8999999910593,203.70000000298023,653.9000000059605,900.7999999970198
63.900000005960464,88,206.8999999910593,654,1126.7999999970198
63.599999994039536,88.79999999701977,207.20000000298023,592,1623
65.79999999701977,106.59999999403954,225.5,429.90000000596046,1263.5
64.29999999701977,88.29999999701977,228.70000000298023,388.59999999403954,1226.7999999970198
83.70000000298023,89.79999999701977,206.3999999910593,547.2000000029802,1100.3999999910593
82.5,86.8999999910593,184.79999999701977,492.20000000298023,960.8000000119209
83,86.8999999910593,190.70000000298023,530.6000000089407,1197.199999988079
140,144.5,331.8999999910593,432.5,1020.0999999940395
65.5,102,332.40000000596046,374.70000000298023,837.5999999940395
64.70000000298023,101.29999999701977,368.59999999403954,350.5,732.2000000029802
64.20000000298023,72.29999999701977,330.40000000596046,312.29999999701977,717.2000000029802
64.70000000298023,71.09999999403954,530.5,274.30000001192093,800.5999999940395
63.400000005960464,104.79999999701977,387.90000000596046,296.3999999910593,1081.7000000029802
63.900000005960464,144.8999999910593,346.69999998807907,392.59999999403954,965.9000000059605
82,144.29999999701977,271.20000000298023,349.29999999701977,674
63.79999999701977,183.8999999910593,387.1000000089407,350.5,738.2999999970198
63.80000001192093,163.79999999701977,272.29999999701977,659.5,1346.7999999970198
83.5,144.40000000596046,224.79999999701977,591.5,1177.2999999970198
82.90000000596046,146,194.20000000298023,530.5,1463.1000000089407
82,188.5,209,632.6000000089407,1524.0999999940395
81.29999999701977,223.90000000596046,210.40000000596046,592.0999999940395,1207.2000000029802
63,166.8999999910593,231.79999999701977,547.5,1023
83,206.5,369.29999999701977,411.80000001192093,1142
85.80000001192093,225.5,366,417.90000000596046,978.2000000029802
83.8999999910593,186.20000000298023,367.5,569.6000000089407,855.5
102.90000000596046,190.20000000298023,325.59999999403954,467.70000000298023,1024
102.59999999403954,166.30000001192093,268.09999999403954,412.20000000298023,965.4000000059605
83.29999999701977,164.3999999910593,267.90000000596046,451.90000000596046,1441.9000000059605
83.90000000596046,127.09999999403954,249.20000000298023,798.7000000029802,1213.7999999970198
82.09999999403954,124.29999999701977,246.09999999403954,568.8000000119209,919.5
104.09999999403954,105.29999999701977,287.5,556.6000000089407,1122.7999999970198
65.6000000089407,104.70000000298023,407.29999999701977,512.9000000059605,1264.4000000059605
64.3999999910593,104.09999999403954,312.3999999910593,451.1000000089407,877
64.40000000596046,102.90000000596046,229.20000000298023,395.1000000089407,1004.4000000059605
64.59999999403954,134.6000000089407,244.5,413.5,1120.6000000089407
64,107.79999999701977,374.20000000298023,496,783.3999999910593
82.8999999910593,129.3999999910593,308.5,536.7000000029802,837.5999999940395
84.1000000089407,109.6000000089407,288.5,729.7000000029802,957.2999999970198
65.29999999701977,108.3999999910593,265.79999999701977,535.2000000029802,918.7000000029802
84.79999999701977,126.1000000089407,325,407.79999999701977,940.2999999970198
125.3999999910593,107,249.59999999403954,375.29999999701977,791.8999999910593
103.40000000596046,105.70000000298023,251,597.9000000059605,1107.7000000029802
102.8999999910593,108.8999999910593,227.90000000596046,492.90000000596046,1083.7999999970198
103.90000000596046,109.8999999910593,247.90000000596046,427.09999999403954,741
104.09999999403954,145,304.5,497,812.7999999970198
104.70000000298023,127.3999999910593,287,520.0999999940395,979.6000000089407
84.79999999701977,148.3999999910593,286,534.2999999970198,736.2999999970198
121.8999999910593,147.79999999701977,266.59999999403954,734.8999999910593,958.8000000119209
104.29999999701977,127.29999999701977,306.8999999910593,731.4000000059605,856.6999999880791
122.79999999701977,124.5,368,578.0999999940395,1168.1000000089407
124.79999999701977,125.70000000298023,351.09999999403954,422,1307.3999999910593
85.1000000089407,127.70000000298023,327.29999999701977,441.1000000089407,1286.8999999910593
102,126.6000000089407,430,459.20000000298023,1380
83.20000000298023,144,734,616.4000000059605,1103.2999999970198
103.29999999701977,146.09999999403954,670.3999999910593,559.4000000059605,1096.5
84.20000000298023,124.40000000596046,490.90000000596046,452.20000000298023,856.5
83.70000000298023,123.5,386.5,767.7999999970198,885.0999999940395
83.29999999701977,122.29999999701977,296.3999999910593,637.8000000119209,999.2999999970198
84.40000000596046,126.59999999403954,351.8999999910593,780.0999999940395,940.3999999910593
69.70000000298023,108.30000001192093,269.09999999403954,735.6999999880791,1006.8000000119209
64.29999999701977,107.5,284,693.4000000059605,1022.5999999940395
66.70000000298023,126.5,266.6000000089407,513.4000000059605,1041.8999999910593
65.40000000596046,108.3999999910593,268.90000000596046,632.5,908.1999999880791
64.70000000298023,123.79999999701977,271.20000000298023,634,1224.2999999970198
67.80000001192093,108.1000000089407,225.70000000298023,608.0999999940395,1045.300000011921
85.20000000298023,105.29999999701977,188.79999999701977,543,1111.0999999940395
82.79999999701977,103.59999999403954,248.09999999403954,574.5,1101.5
82.80000001192093,102.59999999403954,286.59999999403954,529.8000000119209,921.1000000089407
67.20000000298023,145.5,245.69999998807907,432.59999999403954,897.6000000089407
64.5,108.80000001192093,227.40000000596046,553.7000000029802,962.2000000029802
84.80000001192093,107.90000000596046,245.70000000298023,395.40000000596046,1363.4000000059605
83.1000000089407,107.8999999910593,271.8999999910593,354.3999999910593,1033.7000000029802
82.40000000596046,144.79999999701977,498.79999999701977,314.5,792.4000000059605
82,143.6000000089407,270.5,411.90000000596046,756.5
64.5,146.59999999403954,250.3999999910593,454.40000000596046,895.2000000029802
64.5,190.5,252.59999999403954,571.8000000119209,899.7000000029802
63.20000000298023,143.29999999701977,287.29999999701977,472,822.1999999880791
67.20000000298023,174.90000000596046,244.20000000298023,433.70000000298023,898.7999999970198
63.20000000298023,185.70000000298023,207,694.2999999970198,1074.1000000089407
63.400000005960464,496.20000000298023,171.30000001192093,616.2000000029802,877.7000000029802
64.90000000596046,245.1000000089407,191.30000001192093,632.5,1020.7000000029802
62.900000005960464,184.70000000298023,185.5,714.6000000089407,1455.9000000059605
63.20000000298023,147.09999999403954,184.6000000089407,733.5999999940395,1343.2000000029802
66,144.1000000089407,210,679.6000000089407,1103.3999999910593
83.19999998807907,141.8999999910593,269.40000000596046,637,958.5999999940395
82.30000001192093,111.5,289.79999999701977,472,942.5
64,106.3999999910593,228.79999999701977,592.3999999910593,822.7999999970198
104,106,207.59999999403954,855.4000000059605,1060.2000000029802
83.90000000596046,124.40000000596046,252.19999998807907,740.2999999970198,1258.4000000059605
357.90000000596046,127.59999999403954,305.5,656.8999999910593,881.2000000029802
83.09999999403954,147.70000000298023,248,720.8999999910593,916.1000000089407
82.29999999701977,127.79999999701977,207.90000000596046,670.2000000029802,1161.8999999910593
84.40000000596046,169.40000000596046,203.80000001192093,470.6000000089407,1217.5999999940395
83.70000000298023,168,170.5,555.4000000059605,798.7999999970198
64.90000000596046,170.70000000298023,206.20000000298023,488.5,960.2999999970198
65.09999999403954,188.70000000298023,208.79999999701977,491.90000000596046,1038.1000000089407
64.8999999910593,167.5,265.5,508.79999999701977,1201
65.70000000298023,167.40000000596046,266.6000000089407,519.7000000029802,1389.7000000029802
85.20000000298023,226.70000000298023,225.79999999701977,772.7000000029802,1199.2000000029802
84.20000000298023,205.29999999701977,191.29999999701977,494.30000001192093,1196.4000000059605
82.8999999910593,166.09999999403954,206.90000000596046,513,1298.9000000059605
81.8999999910593,409.59999999403954,288.09999999403954,594.1000000089407,813.7999999970198
84.09999999403954,185.90000000596046,285.8999999910593,571.5,937.2000000029802
65.8999999910593,145.1000000089407,266.6000000089407,491,825.7999999970198
65.20000000298023,126.29999999701977,230.69999998807907,593.0999999940395,1132.0999999940395
64.80000001192093,106,412.09999999403954,490.1000000089407,955
64.5,122.8999999910593,367.3999999910593,550.3999999910593,902.7999999970198
66.29999999701977,125.6000000089407,270.20000000298023,448.80000001192093,787.6000000089407
67,145.29999999701977,288.70000000298023,511.70000000298023,789.7999999970198
63.900000005960464,162.70000000298023,267.70000000298023,533.1999999880791,737.3999999910593
63,164,229.40000000596046,509.40000000596046,741.5
62.900000005960464,144.59999999403954,326.90000000596046,555.0999999940395,821.4000000059605
64.40000000596046,125.40000000596046,347.3999999910593,589.7999999970198,1000.4000000059605
65.79999999701977,108.09999999403954,308.09999999403954,651.7000000029802,797.1999999880791
63.70000000298023,107.5,268.20000000298023,591.7000000029802,960.0999999940395
63.900000005960464,106.20000000298023,366.8999999910593,435,1088.7000000029802
65.09999999403954,107.5,249.09999999403954,392.90000000596046,1045.5
70.09999999403954,143.29999999701977,224.90000000596046,390.6000000089407,1134.9000000059605
83.79999999701977,134.29999999701977,203.70000000298023,419.3999999910593,1222.6000000089407
66.20000000298023,145.19999998807907,168.90000000596046,611.5,954.7000000029802
65.20000000298023,162.70000000298023,165.29999999701977,452.5,725
67.5,145.20000000298023,175.6000000089407,557.3999999910593,854.9000000059605
65,145.6000000089407,287.5,580.9000000059605,1264.5
63.400000005960464,144.5,274,472,1484.7000000029802
62.3999999910593,145.5,265.70000000298023,432.90000000596046,901.5
131.70000000298023,183.90000000596046,208.8999999910593,470.70000000298023,857.3000000119209
62.8999999910593,182.69999998807907,267.79999999701977,489.79999999701977,1081.2000000029802
63,167.70000000298023,244.29999999701977,494.40000000596046,1040.2999999970198
64,145.79999999701977,225.19999998807907,459.20000000298023,1040.2000000029802
62.70000000298023,183.3999999910593,211.09999999403954,584.8999999910593,723.6000000089407
62.6000000089407,208.5,229,833.7000000029802,1447.2999999970198
102,224.5,204.79999999701977,793.6000000089407,1104.1000000089407
64.69999998807907,522.5999999940395,209.09999999403954,677.0999999940395,1185.9000000059605
64.40000000596046,226.70000000298023,186.70000000298023,589.5,1120
62.79999999701977,185.6000000089407,175.6000000089407,469.69999998807907,1169.4000000059605
64.40000000596046,147.19999998807907,166.29999999701977,368.69999998807907,1324.300000011921
65.09999999403954,127.59999999403954,168.20000000298023,291.29999999701977,1020.7000000029802
61.79999999701977,145.59999999403954,224.20000000298023,264.90000000596046,818.7000000029802
61.599999994039536,169.69999998807907,248.20000000298023,331.5,1040.2000000029802
61.5,164.8999999910593,249,394.29999999701977,1080.5
61.29999999701977,145,226.40000000596046,400,857.7000000029802
61.20000000298023,133.90000000596046,189.20000000298023,393.20000000298023,853.0999999940395
61.79999999701977,151.29999999701977,226.20000000298023,415.09999999403954,858.4000000059605
61,148.79999999701977,247,458.70000000298023,917
61.20000000298023,127,531.2000000029802,518.2999999970198,1004
61.20000000298023,126.09999999403954,327.6000000089407,692.2999999970198,1365.5
61,126.1000000089407,267.5,491.29999999701977,1076.199999988079
50.099999994039536,146.30000001192093,225.80000001192093,413.40000000596046,884.9000000059605
47.5,225.90000000596046,206.29999999701977,429.30000001192093,759
50.099999994039536,226.20000000298023,248,634.9000000059605,1203.7000000029802
68.5,224.29999999701977,232.70000000298023,555.4000000059605,1115.7000000029802
68.09999999403954,185.20000000298023,219.90000000596046,633.2999999970198,892.4000000059605
85.8999999910593,183.09999999403954,225.79999999701977,576.2999999970198,1013.2000000029802
82.6000000089407,195.79999999701977,209.70000000298023,590.9000000059605,1018.6000000089407
83.09999999403954,247.30000001192093,507.79999999701977,570.5,1167
66.09999999403954,205.59999999403954,427.09999999403954,557.6000000089407,1271.5999999940395
66.59999999403954,186.5,307.20000000298023,693.8999999910593,1140.4000000059605
65.30000001192093,192.59999999403954,289.5,557.7000000029802,1006.9000000059605
65,170.40000000596046,227.29999999701977,413.80000001192093,1124
84.5,146.20000000298023,206.6000000089407,509.09999999403954,1209.5
83.79999999701977,126.79999999701977,206.29999999701977,493.5,1202.4000000059605
83.59999999403954,143.40000000596046,194.69999998807907,732,1238.2999999970198
65,128.30000001192093,169.90000000596046,673.4000000059605,1065.9000000059605
64.79999999701977,107.79999999701977,207.79999999701977,896.2000000029802,1237.5
64.1000000089407,125.90000000596046,251.6000000089407,813.4000000059605,1073.2000000029802
63.8999999910593,124.29999999701977,287.70000000298023,531.8000000119209,880.0999999940395
62.69999998807907,122.20000000298023,210.59999999403954,552,1553.7000000029802
63.29999999701977,107.69999998807907,205.29999999701977,532.3999999910593,939.6000000089407
63.29999999701977,125.6000000089407,202.90000000596046,371.09999999403954,795
64.3999999910593,126.09999999403954,214.59999999403954,396.59999999403954,935.2000000029802
64.6000000089407,145,269.70000000298023,574.7999999970198,1081.6000000089407
63.8999999910593,164.80000001192093,352.79999999701977,510.09999999403954,1221.2999999970198
63.400000005960464,146.59999999403954,448.20000000298023,691.6000000089407,1098.800000011921
62.6000000089407,126.09999999403954,427.20000000298023,711,879.2000000029802
63.20000000298023,145,324.79999999701977,573.6000000089407,809.1999999880791
65.29999999701977,125.5,329,765.2999999970198,1263.1000000089407
124.30000001192093,124.70000000298023,271.59999999403954,721.7999999970198,1038.199999988079
103.70000000298023,106.29999999701977,210.09999999403954,677.8000000119209,1001.7999999970198
101.70000000298023,105.09999999403954,228.79999999701977,797.5,1363.7999999970198
103.70000000298023,123.40000000596046,267.6000000089407,813.4000000059605,975.7000000029802
65.70000000298023,125,319.79999999701977,611,673.6000000089407
85.5,127.20000000298023,228.6000000089407,489,918.2000000029802
105.70000000298023,128.40000000596046,228.90000000596046,608.7000000029802,1524.2999999970198
104.09999999403954,147.29999999701977,287.40000000596046,676.5999999940395,1103
84.40000000596046,145,247.29999999701977,509.5,1244.1000000089407
85.19999998807907,142.70000000298023,253.09999999403954,411,893.7000000029802
103.3999999910593,200.70000000298023,305.40000000596046,387.8999999910593,1038.0999999940395
84.20000000298023,125.79999999701977,247.3999999910593,310.70000000298023,1324.0999999940395
83.59999999403954,142.70000000298023,265.20000000298023,452.90000000596046,1156.2000000029802
84.59999999403954,144.90000000596046,304.1000000089407,793.7000000029802,923.9000000059605
86.20000000298023,146.69999998807907,248.70000000298023,671.1000000089407,758.0999999940395
86.29999999701977,164.59999999403954,230.29999999701977,531,883.7000000029802
103.29999999701977,128.8999999910593,305.79999999701977,669.0999999940395,653
102.80000001192093,108.8999999910593,247.70000000298023,511.79999999701977,576.0999999940395
102.3999999910593,123.8999999910593,208.5,410.79999999701977,870.4000000059605
86.8999999910593,105.79999999701977,247,494.20000000298023,900.9000000059605
104.1000000089407,107.5,249,514,883.3000000119209
84.29999999701977,143.79999999701977,244.59999999403954,430.29999999701977,1120.9000000059605
84,164.40000000596046,205.5,443.79999999701977,1504.6000000089407
83,145.6000000089407,190.70000000298023,968.5999999940395,1200.7999999970198
64.8999999910593,126.6000000089407,205.5,810.1000000089407,1239.7999999970198
67.40000000596046,124.20000000298023,185.6000000089407,775.5999999940395,1001
64.5,128.70000000298023,166.8999999910593,494,1069
64.09999999403954,126.8999999910593,170.20000000298023,474.09999999403954,1147.3999999910593
64.1000000089407,163,269.20000000298023,687.7999999970198,1197.7999999970198
64.5,128.20000000298023,186.5,690.3999999910593,1078.7999999970198
82.40000000596046,108.6000000089407,183.59999999403954,615.6000000089407,1144.699999988079
63.80000001192093,106.79999999701977,152.09999999403954,879.5,878.2999999970198
68.40000000596046,128.09999999403954,148.69999998807907,839.9000000059605,917.5999999940395
64.80000001192093,128.30000001192093,149.09999999403954,511.3999999910593,836.5
64.1000000089407,125.20000000298023,165.40000000596046,596.8999999910593,1023.2000000029802
63.900000005960464,144.59999999403954,166.09999999403954,619.1999999880791,1058.6000000089407
63.20000000298023,167.8999999910593,192.70000000298023,572.3999999910593,842.7999999970198
64.5,432.5,208.20000000298023,431.80000001192093,959.7999999970198
63.8999999910593,205.70000000298023,266.09999999403954,419.79999999701977,800.7999999970198
63.20000000298023,164.80000001192093,227.70000000298023,452.90000000596046,902.2999999970198
62.900000005960464,147.29999999701977,284.59999999403954,630,785.0999999940395
65.20000000298023,142.09999999403954,288.09999999403954,674.2000000029802,958
65.09999999403954,110.29999999701977,287.79999999701977,610.5,1033.300000011921
63.70000000298023,125.1000000089407,244.70000000298023,429,1145.2000000029802
314.70000000298023,124.59999999403954,228.70000000298023,331.20000000298023,1346.2999999970198
107.79999999701977,123.5,248.5,529.5,1117.1000000089407
64.8999999910593,106,208.20000000298023,693.2000000029802,1462.6000000089407
64.29999999701977,104.69999998807907,204.30000001192093,631.2999999970198,1094.5999999940395
63.6000000089407,88.90000000596046,431.29999999701977,932.5999999940395,1078.5999999940395
110.79999999701977,88.6000000089407,210.69999998807907,720.9000000059605,1179.2000000029802
66.09999999403954,87,207.90000000596046,692.0999999940395,1343.7999999970198
66.29999999701977,86.30000001192093,189.70000000298023,855.7000000029802,984.2999999970198
65.1000000089407,70.8999999910593,247.29999999701977,637.3999999910593,999.2000000029802
65,89.5,248.20000000298023,473.20000000298023,1122.7000000029802
180.8999999910593,112,299.20000000298023,632,1261.5
83.09999999403954,128,309.79999999701977,653.7000000029802,1409.4000000059605
64.20000000298023,125.5,266.79999999701977,518,1358.300000011921
84.5,131.09999999403954,248.09999999403954,480.6000000089407,1075
102.59999999403954,151.5,368,429.3999999910593,1507.2999999970198
101.79999999701977,149.70000000298023,368.1000000089407,393.59999999403954,1077.2000000029802
82.8999999910593,144.40000000596046,387.70000000298023,543.2999999970198,722.5
84.3999999910593,127.3999999910593,409.80000001192093,556.7000000029802,890.0999999940395
83.59999999403954,144,267.70000000298023,492.09999999403954,963.7000000029802
68.5,144.8999999910593,250.09999999403954,554.5,1077.1000000089407
83.79999999701977,127.8999999910593,305.70000000298023,452.59999999403954,969.2999999970198
85.09999999403954,126.30000001192093,267.20000000298023,440,1232.3999999910593
105.29999999701977,151.20000000298023,245.90000000596046,499.3999999910593,1119.300000011921
105.90000000596046,163.5,264.20000000298023,572.3000000119209,983.5
84.80000001192093,185.40000000596046,249.20000000298023,467.59999999403954,842.1000000089407
84,169.29999999701977,208.1000000089407,372.59999999403954,803.6999999880791
82.09999999403954,166.90000000596046,258,428.20000000298023,761.9000000059605
104.59999999403954,146.20000000298023,329.29999999701977,534.0999999940395,1101.2999999970198
90.90000000596046,145,346.20000000298023,536.2000000029802,1064.699999988079
84.70000000298023,168,493.5,531.6000000089407,1270
84.3999999910593,164.3999999910593,428.40000000596046,610.3999999910593,1282
103.3999999910593,144.30000001192093,406.90000000596046,963.6000000089407,960.5999999940395
102.90000000596046,142.1000000089407,285.5,777.7000000029802,947.5999999940395
83.5,107.20000000298023,286,655.9000000059605,923.8999999910593
200.70000000298023,106.6000000089407,265.5,553.4000000059605,742.2999999970198
84.19999998807907,107.20000000298023,225.59999999403954,650.7999999970198,1328.7999999970198
167,123.70000000298023,186.79999999701977,796.5999999940395,882
146,123,208.5,734.2000000029802,842.2000000029802
125,106.5,554.7000000029802,672.7000000029802,1269.0999999940395
103.69999998807907,125.90000000596046,349.3999999910593,549.2999999970198,1003.2999999970198
85,145.79999999701977,294.20000000298023,493.40000000596046,949.5999999940395
84.20000000298023,162.70000000298023,272.1000000089407,717.5,962.2000000029802
106,126.30000001192093,252.40000000596046,733.7999999970198,1178.3999999910593
122.5,123.8999999910593,308.59999999403954,665,1080.2999999970198
85.29999999701977,106.29999999701977,286.09999999403954,792.6000000089407,1251.5999999940395
103.20000000298023,106.29999999701977,248.70000000298023,533,1085.0999999940395
101.79999999701977,103.3999999910593,268.79999999701977,409.30000001192093,1143.7999999970198
83.40000000596046,352.79999999701977,251,315.09999999403954,976.9000000059605
83.29999999701977,105.6000000089407,247.5,374.40000000596046,938.2000000029802
66.30000001192093,106.5,268.70000000298023,351.29999999701977,776
65.90000000596046,106,327.59999999403954,295.1000000089407,998.5999999940395
83.8999999910593,147.5,390.79999999701977,433.29999999701977,1562.5
84.1000000089407,124.70000000298023,327.09999999403954,552.6000000089407,1262.2000000029802
82.5,125.29999999701977,348.59999999403954,416.20000000298023,997.7000000029802
64.3999999910593,105.59999999403954,465.79999999701977,526.4000000059605,1083.9000000059605
66,104.20000000298023,450.5,394.69999998807907,1342
83.40000000596046,88.29999999701977,489.20000000298023,351.80000001192093,1019.5
83.8999999910593,107.5,426.3999999910593,394.90000000596046,928.5
84.70000000298023,106.8999999910593,307.8999999910593,435.1000000089407,1679.2999999970198
86.29999999701977,106.79999999701977,273.70000000298023,478,1410.6000000089407
83.5,154.6000000089407,317.20000000298023,695.5999999940395,1018.3999999910593
65.90000000596046,124.90000000596046,349.6000000089407,532.7000000029802,1203.2999999970198
66.1000000089407,128.59999999403954,330.70000000298023,491.90000000596046,1038.2999999970198
65.79999999701977,123,327.70000000298023,898.4000000059605,1207.9000000059605
65.69999998807907,127.80000001192093,306.20000000298023,570.6000000089407,1463.4000000059605
64.29999999701977,184.5,304.79999999701977,491.3999999910593,1301.0999999940395
64.90000000596046,224.29999999701977,267.40000000596046,537,1081
66.3999999910593,226.29999999701977,308.79999999701977,653.7000000029802,1063.4000000059605
63.79999999701977,267.40000000596046,369,595,722.0999999940395
85.29999999701977,224.59999999403954,373.20000000298023,417.90000000596046,796.2999999970198
64.29999999701977,166.5,412.70000000298023,372.59999999403954,822.7999999970198
63.400000005960464,145.1000000089407,388.30000001192093,414.5,919.5
62.79999999701977,142.6000000089407,371,658.8999999910593,1219.2000000029802
63.20000000298023,129,449.5,734.1000000089407,1496
62.5,209.79999999701977,466.3999999910593,478.70000000298023,1362.0999999940395
62.20000000298023,185.3999999910593,333.29999999701977,451.90000000596046,1085.7000000029802
62.20000000298023,163.8999999910593,308.29999999701977,429.29999999701977,1406.7000000029802
61.599999994039536,207.09999999403954,270.70000000298023,512,1146.6000000089407
339,226.40000000596046,350.70000000298023,533.5999999940395,1115.7000000029802
385.40000000596046,224,344.70000000298023,520.7999999970198,1099.5999999940395
65.40000000596046,167.59999999403954,325.20000000298023,671.7000000029802,756.7999999970198
65,127.90000000596046,248.5,654.2000000029802,758.3000000119209
65.20000000298023,125,229,591.7000000029802,1199.0999999940395
83.20000000298023,124.8999999910593,226,494.40000000596046,1226.5
83.5,105.3999999910593,191.20000000298023,368.79999999701977,1470.8999999910593
84.5,107.30000001192093,203.20000000298023,353.70000000298023,1095.9000000059605
103.20000000298023,126.40000000596046,215.70000000298023,376,1181.7000000029802
367.19999998807907,126.20000000298023,268.20000000298023,560.7000000029802,1249.9000000059605
203.90000000596046,142,248.20000000298023,456.40000000596046,1234.0999999940395
145.40000000596046,146.90000000596046,206.1000000089407,392.1000000089407,944.5999999940395
123.79999999701977,146.3999999910593,228.09999999403954,609,1506.9000000059605
122.29999999701977,150.59999999403954,205,791,1198
124,169.20000000298023,226.5,572.1999999880791,1401.5
142.70000000298023,148.90000000596046,245.79999999701977,573.7000000029802,1471.5999999940395
105,143.70000000298023,249.20000000298023,513.6000000089407,1320.5999999940395
87.6000000089407,143.5,270.79999999701977,489.90000000596046,996.5999999940395
83.70000000298023,128.6000000089407,244.6000000089407,881.6000000089407,799.5
84.1000000089407,165.59999999403954,268.40000000596046,635.4000000059605,860.2999999970198
85.19999998807907,184.59999999403954,365.79999999701977,754.8999999910593,1041.4000000059605
64.59999999403954,167.70000000298023,329.1000000089407,690.9000000059605,923
63.900000005960464,162.09999999403954,247.1000000089407,614.6000000089407,1118.7000000029802
63.5,127.29999999701977,276.8999999910593,611,1361.8999999910593
64.20000000298023,124.79999999701977,269.5,409.20000000298023,1671.1000000089407
64.20000000298023,154.90000000596046,244.80000001192093,330.20000000298023,1609.5
64.20000000298023,127.1000000089407,207.29999999701977,296.5,1117.7000000029802
63.79999999701977,123.20000000298023,169.09999999403954,500.09999999403954,1065.3999999910593
63.5,105.70000000298023,166.20000000298023,693,941.2999999970198
63.29999999701977,104.79999999701977,162.40000000596046,633.5999999940395,885.6000000089407
63.1000000089407,103.29999999701977,133.09999999403954,508.90000000596046,1377.4000000059605
62.3999999910593,87.09999999403954,148.29999999701977,468.09999999403954,1003.5
62.1000000089407,86.70000000298023,172,472.70000000298023,941.6000000089407
62.5,86.29999999701977,187.70000000298023,421.09999999403954,695
63,88.69999998807907,209.19999998807907,571.2999999970198,574.2000000029802
61.599999994039536,112,249.20000000298023,451.5,928
61.5,108.29999999701977,224.5,333,1086.1000000089407
341.3999999910593,108,188.20000000298023,369.1000000089407,1281.4000000059605
64.29999999701977,371.59999999403954,174.40000000596046,472.09999999403954,980.0999999940395
63.19999998807907,127,193.1000000089407,661.2000000029802,1009.2000000029802
62.5,126.6000000089407,210.5,487.30000001192093,1359.8999999910593
102.70000000298023,131.69999998807907,225.90000000596046,409,1076.3999999910593
63.1000000089407,183.70000000298023,224.3999999910593,432.69999998807907,1036.0999999940395
62.79999999701977,163.29999999701977,229,416.29999999701977,1082.4000000059605
83.5,166.70000000298023,406.40000000596046,409.1000000089407,651.7000000029802
84.40000000596046,184.29999999701977,355.29999999701977,371.70000000298023,887
102.59999999403954,393.59999999403954,254.59999999403954,411.79999999701977,760.6999999880791
142.09999999403954,186.70000000298023,224.90000000596046,535.2000000029802,1000.0999999940395
83.6000000089407,165.6000000089407,226.90000000596046,968.0999999940395,1447.5999999940395
83,146.8999999910593,246.70000000298023,584.4000000059605,1243.300000011921
85.5,164.79999999701977,307.79999999701977,679.7000000029802,1850
67.40000000596046,144.79999999701977,324,814.7999999970198,1203.7000000029802
65.5,147.6000000089407,250.5,633.5999999940395,1109.6000000089407
71.8999999910593,146.09999999403954,328.70000000298023,512.2000000029802,1104.699999988079
83.1000000089407,129.20000000298023,328.20000000298023,554.4000000059605,1607.7000000029802
85.5,143.09999999403954,266.29999999701977,537.0999999940395,958.3000000119209
101.59999999403954,143.59999999403954,265.5,553.5,923.2000000029802
102.29999999701977,127.79999999701977,266.3999999910593,734.8999999910593,780.5
103.79999999701977,127,329.20000000298023,590.2999999970198,803.4000000059605
107.20000000298023,125.20000000298023,391.30000001192093,533.7999999970198,1043.2999999970198
124.5,125.5,326.09999999403954,450.5,877
103.3999999910593,142.70000000298023,267.80000001192093,505.40000000596046,862.5999999940395
86.29999999701977,124.70000000298023,305.20000000298023,520,665.2999999970198
83.79999999701977,190.19999998807907,348.8999999910593,488.59999999403954,780
86.09999999403954,149.09999999403954,267.80000001192093,418.70000000298023,765.5999999940395
102,206.3999999910593,310.20000000298023,389.8999999910593,1164.4000000059605
85.29999999701977,206.29999999701977,334.40000000596046,471.09999999403954,1064.2000000029802
83.09999999403954,164.5,405.29999999701977,431.79999999701977,877.8000000119209
81.20000000298023,127.79999999701977,385.40000000596046,352.29999999701977,1128.2999999970198
81.20000000298023,124.5,284.09999999403954,348.3999999910593,936.7999999970198
63.5,107,309.59999999403954,294.8999999910593,1135.5
82.20000000298023,104.1000000089407,468.29999999701977,335.70000000298023,1055.3999999910593
81.20000000298023,125.5,489.6000000089407,471.79999999701977,1532
81.90000000596046,171.8999999910593,407.3999999910593,373.30000001192093,933.9000000059605
84,143.09999999403954,306.80000001192093,413.3999999910593,1248
66.20000000298023,142.29999999701977,326,452.09999999403954,856.3999999910593
63.20000000298023,146.30000001192093,347.8999999910593,532.5999999940395,806.6999999880791
47.599999994039536,166.20000000298023,266.79999999701977,470,1100.7999999970198
66.09999999403954,146.40000000596046,228.69999998807907,521.3999999910593,1114.5
63.400000005960464,142.70000000298023,227,514.2999999970198,958.2999999970198
62.80000001192093,106.80000001192093,265.09999999403954,819.4000000059605,764.2000000029802
65.09999999403954,106.1000000089407,288.20000000298023,734.2000000029802,1130.2999999970198
62.30000001192093,106.8999999910593,267.29999999701977,550.7999999970198,842
61.79999999701977,122.90000000596046,269.29999999701977,673.2999999970198,682.5
61.900000005960464,121.79999999701977,325.79999999701977,594.5,826.2000000029802
64.29999999701977,104.19999998807907,285.1000000089407,857.5,1142.7000000029802
64.8999999910593,90.5,290.8999999910593,638.7999999970198,819.6999999880791
66.40000000596046,124.6000000089407,267.1000000089407,553.5999999940395,988.2000000029802
64.5,124.69999998807907,451,659.0999999940395,898.5
63.79999999701977,141.59999999403954,369.20000000298023,656.2999999970198,875.7999999970198
62.1000000089407,125.59999999403954,326.59999999403954,774.1000000089407,1294.0999999940395
63.1000000089407,145.79999999701977,266.29999999701977,510.6000000089407,1172.2000000029802
64.29999999701977,182.20000000298023,267.90000000596046,740.1999999880791,1069.5999999940395
64,164.79999999701977,288.20000000298023,655.5,1160.3999999910593
67.20000000298023,164.30000001192093,307.20000000298023,654.0999999940395,980.0999999940395
64.5,167.1000000089407,251.6000000089407,576.2999999970198,1200.5
63.79999999701977,144.79999999701977,472.8999999910593,432,1910.7000000029802
63.3999999910593,125,227.6000000089407,641.1000000089407,1583.5999999940395
63.3999999910593,122.79999999701977,194.59999999403954,716.1999999880791,860
63.8999999910593,125.09999999403954,210.59999999403954,754.5,1081.1000000089407
64.09999999403954,164.1000000089407,292,612.3999999910593,859.9000000059605
64,129.70000000298023,367.59999999403954,491.5,1036.0999999940395
149.5,109.40000000596046,529.3999999910593,588.5,699.5
83.6000000089407,110,328,508,632.6000000089407
82.70000000298023,123.59999999403954,352.09999999403954,471,984.3999999910593
82.80000001192093,144.5,347.3999999910593,482.40000000596046,939.3000000119209
83.90000000596046,144.90000000596046,304.8999999910593,490.8999999910593,1461.699999988079
83.20000000298023,143.90000000596046,270.19999998807907,571.5999999940395,1417.7000000029802
102.29999999701977,108.09999999403954,515.3999999910593,653.6999999880791,1035.6000000089407
83.90000000596046,127,247.3999999910593,552.7999999970198,1542.9000000059605
86,124.79999999701977,289,676.8999999910593,1123.5
176,144.29999999701977,247.29999999701977,652.2999999970198,982.2000000029802
84,143.59999999403954,247.90000000596046,494,803.7000000029802
84.70000000298023,124.29999999701977,211,574.5999999940395,1409.800000011921
83.59999999403954,108.40000000596046,246.5,553.6000000089407,999.5
65.80000001192093,106.5,211.69999998807907,534.5,975.5
65.79999999701977,88.70000000298023,213,660.7999999970198,805.6000000089407
66,105.90000000596046,213.09999999403954,555.8000000119209,1387.7000000029802
84,125.20000000298023,227.90000000596046,550.2000000029802,1150.5
88,126.59999999403954,227.8999999910593,491.6000000089407,1028.5
84.40000000596046,107,230.59999999403954,550.5999999940395,1027.7999999970198
65.29999999701977,105.8999999910593,248,552.2000000029802,860.5999999940395
64.90000000596046,107.09999999403954,209.6000000089407,676.7999999970198,1037.3999999910593
63.900000005960464,106.59999999403954,187.59999999403954,560.9000000059605,835.2000000029802
84.29999999701977,127.20000000298023,184.59999999403954,536.1000000089407,985.4000000059605
84.09999999403954,128.29999999701977,167.5,571.4000000059605,1117.9000000059605
101.70000000298023,125.3999999910593,231.6000000089407,881.0999999940395,886.5999999940395
102.59999999403954,106.09999999403954,246.3999999910593,776.1000000089407,1144.2000000029802
82.79999999701977,104,334.80000001192093,652.3999999910593,840.9000000059605
81.79999999701977,89.90000000596046,236,532.5,905.7000000029802
82.59999999403954,361.90000000596046,490,695.7000000029802,659.2000000029802
64.3999999910593,203.90000000596046,266.20000000298023,530.8999999910593,535
63.79999999701977,208.5,274.20000000298023,453.70000000298023,670.3000000119209
63.29999999701977,207.69999998807907,267.70000000298023,490.20000000298023,758.4000000059605
67.09999999403954,147.59999999403954,246.59999999403954,451.5,693.5
67,127.29999999701977,217.79999999701977,535,783.4000000059605
66.90000000596046,109.69999998807907,191.29999999701977,587.5999999940395,1403.2000000029802
48.900000005960464,122.79999999701977,205.29999999701977,571.7999999970198,1058.2999999970198
67.8999999910593,105.29999999701977,209.79999999701977,773.8000000119209,1272.7000000029802
67.59999999403954,127,451.59999999403954,612,957
68,126.5,230.5,491,1202.7000000029802
83.3999999910593,126,187.5,589.7000000029802,1099.6000000089407
82.29999999701977,126.70000000298023,228,472.5,1087.2000000029802
64.40000000596046,132.70000000298023,230.59999999403954,573.2000000029802,1292.0999999940395
64.5,126.79999999701977,193.5,470,1187.3999999910593
64.09999999403954,115.70000000298023,212.20000000298023,512.4000000059605,1142.2000000029802
63.1000000089407,124.79999999701977,189,592.0999999940395,1122.0999999940395
62.20000000298023,107.29999999701977,182.5,573.3999999910593,997.5999999940395
62.29999999701977,105.59999999403954,265.6000000089407,593.7000000029802,1044.2999999970198
62.19999998807907,106.09999999403954,225.79999999701977,512.2999999970198,1161.8999999910593
146.29999999701977,123.59999999403954,291.09999999403954,423.8999999910593,777.9000000059605
62.79999999701977,122.79999999701977,378.70000000298023,455.5,1031.699999988079
62.79999999701977,106.29999999701977,389.80000001192093,409.09999999403954,1394.5
63.70000000298023,144.30000001192093,327,510.79999999701977,1017.5999999940395
81.59999999403954,126.3999999910593,291.80000001192093,405.70000000298023,1287.7999999970198
63.29999999701977,124,244.8999999910593,413,1287.5
63,122.70000000298023,211.70000000298023,507,904.2000000029802
63.1000000089407,104.70000000298023,190.09999999403954,614.5,1021.2999999970198
83.59999999403954,89.59999999403954,189.8999999910593,717.7999999970198,796.9000000059605
82.1000000089407,91.20000000298023,191.3999999910593,552,1323.3999999910593
63.20000000298023,88.5,229.80000001192093,488.20000000298023,982.2999999970198
63.3999999910593,154.20000000298023,227.1000000089407,576.2000000029802,1086
63.599999994039536,129.6000000089407,189.5,674.7000000029802,1004
62.8999999910593,128.29999999701977,168.40000000596046,1162,923.2999999970198
63.70000000298023,109,176.5,756.7999999970198,998
63.29999999701977,122.3999999910593,207.09999999403954,679.5,1453.3999999910593
62.70000000298023,110.1000000089407,233,520.7000000029802,1207
61.70000000298023,127.19999998807907,207.8999999910593,494.70000000298023,1224.9000000059605
63.20000000298023,105.8999999910593,188.5,618,916.0999999940395
63.599999994039536,105.30000001192093,192.80000001192093,613.6000000089407,660.7000000029802
62.69999998807907,104.09999999403954,176.59999999403954,521.6999999880791,949.9000000059605
63.3999999910593,102.90000000596046,186.20000000298023,501,1100.3999999910593
84.70000000298023,104.90000000596046,175.80000001192093,575,1303.4000000059605
103.8999999910593,125.69999998807907,169.20000000298023,558.5,863.5999999940395
84.59999999403954,109.70000000298023,213.29999999701977,560,952.5
103.3999999910593,110.29999999701977,267.69999998807907,735.5,1060.5
103.90000000596046,114.09999999403954,328.70000000298023,561.8000000119209,1059.199999988079
103.1000000089407,109.5,369.5,490.20000000298023,1037.3999999910593
82.79999999701977,109.8999999910593,268.90000000596046,659.5,1322.5
84.70000000298023,165.20000000298023,248.09999999403954,554.4000000059605,861.1000000089407
105.79999999701977,220.6000000089407,310.3999999910593,611.4000000059605,1119
146.59999999403954,126.20000000298023,288.79999999701977,533.2000000029802,858.1999999880791
104.79999999701977,126.40000000596046,328,522.7000000029802,1025.7000000029802
104.6000000089407,128.79999999701977,324.8999999910593,795.2000000029802,1466.8999999910593
84,125.20000000298023,290.09999999403954,573.7000000029802,1106.2000000029802
83.70000000298023,124,246.79999999701977,715.1999999880791,1326.8999999910593
102.5,105.5,244,612.4000000059605,1692.7000000029802
83.8999999910593,126.69999998807907,309.20000000298023,614.6000000089407,881.2999999970198
104.90000000596046,144.19999998807907,290.19999998807907,591.4000000059605,877.1000000089407
123.79999999701977,125.79999999701977,317.79999999701977,429.90000000596046,1440.6000000089407
103.80000001192093,108.70000000298023,371.8999999910593,533.1000000089407,1462.2000000029802
102.90000000596046,106.79999999701977,405.6000000089407,631,1108.1000000089407
86.70000000298023,125,277.29999999701977,498.3999999910593,1103.5
123.30000001192093,128.79999999701977,251.70000000298023,570.2000000029802,1086.199999988079
104.90000000596046,163.5,263.69999998807907,793.5,715.5
110.1000000089407,127.3999999910593,249.5,555.2999999970198,599.8999999910593
103.80000001192093,144.79999999701977,207.5,592.8000000119209,1020.5
84.20000000298023,165.20000000298023,187.09999999403954,659.3999999910593,1075.3999999910593
83.09999999403954,165.90000000596046,190,519.7999999970198,897.0999999940395
82.5,144.09999999403954,189.1000000089407,636.5,1026.2000000029802
66.29999999701977,125.40000000596046,168.59999999403954,499.29999999701977,1228.5999999940395
65.79999999701977,132.90000000596046,165.20000000298023,509.09999999403954,998
66.1000000089407,128.40000000596046,148,409,1307.5
83.5,147.40000000596046,147.69999998807907,398,1364.7000000029802
84,187.29999999701977,214.3999999910593,531.2000000029802,1343.199999988079
102.3999999910593,203.59999999403954,311.20000000298023,552.2999999970198,1004.4000000059605
102.5,204.1000000089407,348.59999999403954,554.7000000029802,966.3999999910593
83.79999999701977,166,409.5,490.1000000089407,738.1999999880791
65.90000000596046,146.59999999403954,314.70000000298023,591,1032.7999999970198
66.40000000596046,125.5,250.30000001192093,677.2999999970198,1017
65.70000000298023,124.29999999701977,208.8999999910593,753.5999999940395,883.2999999970198
84.09999999403954,193.6000000089407,226,709.1000000089407,967
82.29999999701977,145.09999999403954,205.59999999403954,468.6000000089407,1106.7999999970198
