name,elapsed,sent,recvd,n,mean,std_dev,std_err,ci,median,max,min
32B,207879.5,10000,10000,10000,20.586350000006707,0.35328837732748963,0.0035328837732748965,0.006924452195618797,20.5,25.399999998509884,20.100000001490116
64B,207686.6000000015,10000,10000,10000,20.581260000024734,0.35613313857506207,0.0035613313857506207,0.006980209516071216,20.5,25.200000002980232,20.19999999552965
128B,207856.29999999702,10000,10000,10000,20.573829999951272,0.34243558677856084,0.0034243558677856086,0.006711737500859793,20.5,24.100000001490116,20.19999999552965
256B,208131.1000000015,10000,10000,10000,20.614220000012217,0.39625975274391817,0.003962597527439182,0.007766691153780796,20.5,29.80000000447035,20.19999999552965
512B,212005.6000000015,10000,10000,10000,20.9174099999927,0.6955112449813982,0.0069551124498139815,0.013632020401635404,20.600000001490116,27.399999998509884,20.19999999552965
1KiB,215712.8999999985,10000,10000,10000,21.256830000025033,0.8974683009106559,0.008974683009106558,0.017590378697848855,21,28.299999997019768,20.19999999552965
2KiB,215794.69999999553,10000,10000,10000,21.247859999997168,0.9046001438932628,0.009046001438932628,0.01773016282030795,20.900000005960464,28.69999999552965,20.19999999552965
4KiB,222065,10000,10000,10000,21.81491999997869,1.0572886992406494,0.010572886992406494,0.020722858505116726,21.400000005960464,36.70000000298023,20.69999999552965
8KiB,240511.69999999553,10000,10000,10000,23.436650000030546,1.521277021938031,0.01521277021938031,0.029817029629985406,22.899999998509884,34.099999994039536,21.700000002980232
16KiB,470031.700000003,10000,10000,10000,46.062909999971836,2.373297986324133,0.02373297986324133,0.04651664053195301,45.5,65,43
32KiB,50434.90000000596,1000,1000,1000,49.14830000012368,2.7348852098718814,0.08648466402302761,0.16950994148513412,48.400000005960464,81.20000000298023,45.8999999910593
64KiB,56438.5,1000,1000,1000,53.746800000086424,2.710437189870098,0.08571154974815771,0.16799463750638913,53.5,114.29999999701977,50.79999999701977
128KiB,71662.20000000298,1000,1000,1000,67.54690000009536,3.8688176994729764,0.12234275782307416,0.23979180533322536,67.09999999403954,158.1000000089407,62
256KiB,126324.29999999702,1000,1000,1000,116.5319999999106,12.48219435862267,0.3947216437015224,0.7736544216549839,115.70000000298023,476.20000000298023,108.8999999910593
512KiB,231317.90000000596,1000,1000,1000,212.0270999996066,7.9556932817034145,0.2515811113588237,0.49309897826329446,211.8999999910593,298,198
hol_64B_64KiB_big,54502.29999999702,1000,1000,1000,52.76700000019372,2.4089979245071644,0.07617920320060999,0.14931123827319556,52.1000000089407,111.90000000596046,50.599999994039536
hol_64B_64KiB_small,54502.29999999702,1000,1000,1000,34.05019999991357,3.8847573873297487,0.12284681501126944,0.2407797574220881,32.8999999910593,91.79999999701977,26.399999991059303
hol_512B_32KiB_big,47555.89999999106,1000,1000,1000,46.870299999907616,1.2896309201589264,0.04078171048680964,0.07993215255414689,46.5,74.20000000298023,44.6000000089407
hol_512B_32KiB_small,47555.89999999106,1000,1000,1000,27.131500000029803,2.091190510121022,0.06612925033311826,0.12961333065291178,26.700000002980232,63.8999999910593,22.899999991059303
10_concurrent_16KiB,2892.5,1000,1000,1000,28.350000000074505,6.05139983794366,0.1913620652027579,0.3750696477974055,27.599999994039536,100.09999999403954,25.599999994039536
10_concurrent_32KiB,5826.29999999702,1000,1000,1000,57.31210000024736,12.392442196454935,0.391883431127774,0.7680915250104371,55,205.79999999701977,50.400000005960464
10_concurrent_64KiB,11387.70000000298,1000,1000,1000,112.34770000003279,15.403519555916521,0.4871020577964157,0.9547200332809748,110.20000000298023,320,104.3999999910593
