id,protocol,size,elapsed,sent,recvd,n,mean,std_dev,std_err,ci,median,max,min
A,WebSocket,64KiB,239519.5,1000,1000,1000,236.40500000001862,79.82981908406111,2.524440535048098,4.947903448694272,227.30000000074506,913.1999999992549,53
A,WebSocket,64B,239519.5,1000,1000,1000,218.85190000005625,80.11783781650755,2.533548487081352,4.965755034679449,206.90000000037253,895.3000000007451,32.79999999888241
B,WebSocket,32KiB,129766.70000000112,1000,1000,1000,128.2198000000026,49.53964763662586,1.566581210139152,3.070499171872738,124,483.2999999988824,43.09999999962747
B,WebSocket,512B,129766.70000000112,1000,1000,1000,109.04510000001639,50.92031967688625,1.6102418936284975,3.156074111511855,102.30000000074506,465.5,20.5