size,elapsed,sent,recvd,n,mean,std_dev,std_err,ci,median,max,min
32,329424,10000,10000,10000,32.74477000000607,54.63687176849386,0.5463687176849387,1.0708826866624797,20.5,1388.8999999994412,20.199999999254942
64,328431.80000000075,10000,10000,10000,32.5895100000008,53.06881184801513,0.5306881184801513,1.0401487122210966,20.59999999962747,579.6999999992549,20.199999999254942
128,323105.80000000075,10000,10000,10000,32.07804000000395,51.133661982648945,0.5113366198264895,1.0022197748599193,20.59999999962747,532.4000000003725,20.199999999254942
256,317461.9000000004,10000,10000,10000,31.52079000000246,51.253542324163405,0.512535423241634,1.0045694295536027,20.5,562.2999999988824,20.199999999254942
512,328758.3999999985,10000,10000,10000,32.636330000005664,54.92857295734735,0.5492857295734734,1.076600029964008,20.5,1178.300000000745,20.199999999254942