size,elapsed,sent,recvd,n,mean,std_dev,std_err,ci,median,max,min
32,249237.09999999963,10000,9503,9503,20.673755656111165,0.37855469599435876,0.003883276131239907,0.007611221217230218,20.59999999962747,24.299999999813735,20.199999999254942
64,250878.5,10000,9484,9484,20.676571067063612,0.37998952392093877,0.003901897448662634,0.0076477189993787624,20.59999999962747,25.299999999813735,20.199999999254942
128,252120,10000,9468,9468,20.692078580477844,0.3909606388365957,0.004017944291906006,0.007875170812135773,20.59999999962747,26.40000000037253,20.199999999254942
256,248139.7999999998,10000,9520,9520,20.690241596641943,0.3836390663452805,0.003931917086810233,0.007706557490148056,20.59999999962747,26.299999999813735,20.199999999254942
512,251037.7999999998,10000,9486,9486,20.70818047649283,0.4317229351192894,0.0044326512235811025,0.008687996398218961,20.59999999962747,35.90000000037253,20.200000000186265
