
size,elapsed,sent,recvd,n,mean,std_dev,std_err,ci,median,max,min
32,234566,10000,10000,10000,23.225039999988674,11.873787811783803,0.11873787811783804,0.23272624111096255,20.5,182.5,20.19999999552965
64,232550.30000000447,10000,10000,10000,23.035729999969156,11.179271191265903,0.11179271191265902,0.2191137153488117,20.5,161.20000000298023,20.19999999552965
128,232893.20000000298,10000,10000,10000,23.09143999995291,11.56689710885482,0.11566897108854819,0.22671118333355444,20.5,348.70000000298023,20.19999999552965
256,232992.8999999985,10000,10000,10000,23.095100000037252,11.809261026412507,0.11809261026412507,0.23146151611768515,20.5,346.59999999403954,20.19999999552965
512,232026.3999999985,10000,10000,10000,22.984250000049173,11.155921608599265,0.11155921608599265,0.21865606352854558,20.5,208.19999999552965,20.19999999552965