size,elapsed,sent,recvd,n,mean,std_dev,std_err,ci,median,max,min
32B,234566,10000,10000,10000,23.225039999988674,11.873787811783803,0.11873787811783804,0.23272624111096255,20.5,182.5,20.19999999552965
64B,232550.30000000447,10000,10000,10000,23.035729999969156,11.179271191265903,0.11179271191265902,0.2191137153488117,20.5,161.20000000298023,20.19999999552965
128B,232893.20000000298,10000,10000,10000,23.09143999995291,11.56689710885482,0.11566897108854819,0.22671118333355444,20.5,348.70000000298023,20.19999999552965
256B,232992.8999999985,10000,10000,10000,23.095100000037252,11.809261026412507,0.11809261026412507,0.23146151611768515,20.5,346.59999999403954,20.19999999552965
512B,232026.3999999985,10000,10000,10000,22.984250000049173,11.155921608599265,0.11155921608599265,0.21865606352854558,20.5,208.19999999552965,20.19999999552965
1KiB,232799.09999999404,10000,10000,10000,23.070790000016988,12.253544620906805,0.12253544620906805,0.24016947456977336,20.5,348.29999999701977,20.19999999552965
2KiB,251212.70000000298,10000,10000,10000,24.8933899999775,13.511280890762535,0.13511280890762534,0.26482110545894566,20.5,187.29999999701977,20.19999999552965
4KiB,293145.8999999985,10000,10000,10000,29.05149999997243,16.273760344510663,0.16273760344510663,0.318965702752409,21.19999999552965,189.80000000447035,20.899999998509884
8KiB,339974,10000,10000,10000,33.69460999997854,18.38124179560783,0.1838124179560783,0.3602723391939135,22.600000001490116,223.80000000447035,22.099999994039536
16KiB,550205.2,10000,10000,10000,54.67082999999761,22.143970920121404,0.22143970920121403,0.4340218300343795,48.6999999997206,400,25
32KiB,115820.5,1000,1000,1000,115.026199999996,21.45500252995331,0.6784667519932741,1.3297948339068173,111.39999999990687,265.60000000009313,36.6999999997206
64KiB,208436.19999999972,1000,1000,1000,207.36559999999776,31.39620194609689,0.992835080282772,1.9459567573542331,204.60000000009313,367.1999999997206,91.20000000018626
128KiB,375136.2000000002,1000,1000,1000,373.4148999999976,50.16162186363628,1.5862497621719076,3.109049533856939,374.40000000037253,536.5,99.5
256KiB,717442.3000000003,1000,1000,1000,715.154000000008,85.26725821791145,2.6963874580631004,5.2849194178036765,714,970.8999999999069,256
512KiB,1392333.7999999998,1000,1000,1000,1388.2751999999914,144.52518460449025,4.570287626064905,8.957763747087213,1384.7999999998137,1873.8000000002794,403.79999999981374
hol_64B_64KiB_big,203634.80000000075,1000,1000,1000,202.85309999998938,32.750692365040074,1.0356678282101333,2.0299089432918613,200.5,362.20000000018626,54.40000000037253
hol_64B_64KiB_small,203634.80000000075,1000,1000,1000,43.12609999998193,18.071043931939712,0.571456585218943,1.1200549070291284,44.40000000037253,117.69999999925494,20.200000000186265
hol_512B_32KiB_big,116911.09999999963,1000,1000,1000,116.26179999999516,21.761158993959167,0.6881482694596928,1.3487706081409978,113.8999999994412,270.3999999994412,36.799999999813735
hol_512B_32KiB_small,116911.09999999963,1000,1000,1000,60.021099999997766,28.649886296260515,0.9059889540102882,1.7757383498601649,55.299999999813735,168.59999999962747,20.299999999813735
10_concurrent_16KiB,20300.299999999814,1000,1000,1000,198.77060000000057,60.99986816083408,1.9289852035822204,3.780810999021152,185.5,487.09999999962747,30.5
10_concurrent_32KiB,39455,1000,1000,1000,391.3216000000229,93.82650741363808,2.9670546832577056,5.815427179185103,389.80000000074506,736.4000000003725,98.29999999981374
10_concurrent_64KiB,79824.79999999981,1000,1000,1000,794.5635999999969,228.32213960769695,7.2201800140326595,14.151552827504013,752.1000000005588,1638.5,292.5
