loss,rtt-wt_bidi,rtt-ws,goodput-wt_bidi,goodput-ws,diff,diffpercent
0,382.162,402.668,5.233382702,4.966870971,0.266511731,5.365787284
1,1168.717,1286.086,1.711278265,1.555105957,0.1561723078,10.04255093
2,1721.892,2096.546,1.161513033,0.953949973,0.2075630604,21.7582752
3,2133.735,2630.905,0.9373235196,0.7601946859,0.1771288337,23.30045671
4,2489.141,3175.311,0.8034900393,0.6298595634,0.173630476,27.56653801
5,2724.552,3630.073,0.7340656372,0.5509531076,0.1831125297,33.23559249
6,3034.308,4158.392,0.6591288689,0.4809551384,0.1781737305,37.04581077
7,3343.75,4675.317,0.5981308411,0.42777848,0.1703523611,39.82256449
8,3566.53,5269.024,0.560769151,0.3795769387,0.1811922122,47.73530575
9,3787.247,5625.76,0.5280880809,0.3555075225,0.1725805583,48.54484009
10,4014.007,6394.791,0.4982552347,0.3127545529,0.1855006818,59.31190454
11,4278.083,7044.062,0.4674991112,0.2839270864,0.1835720248,64.6546362
12,4434.748,7646.434,0.4509839116,0.261559833,0.1894240786,72.42093576
13,4618.402,8688.681,0.4330502195,0.2301845355,0.202865684,88.13176073
14,4895.958,9396.002,0.4085002363,0.2128564894,0.1956437469,91.91345187
15,5073.38,10141.068,0.3942145079,0.1972178867,0.1969966212,99.88780655