name,elapsed,sent,recvd,n,mean,stddev,stderr,ci,median,firstquartile,thirdquartile,lowerwhisker,upperwhisker,max,min
delay_ws-0,440.69999998807907,1000,1000,999,0.28898898888755964,0.607048092662078,0.01920615169855051,0.037644057329159,0.20000001788139343,0.19999998807907104,0.30000001192092896,0.09999999403953552,0.4500000476837158,15.600000023841858,0.09999999403953552
delay_ws-50,51606.40000000596,1000,1000,1000,51.23419999998808,0.7855764511175044,0.024842108617232413,0.048690532889775526,50.900000005960464,50.599999994039536,51.900000005960464,50.29999998211861,53.85000002384186,54.70000001788139,50.29999998211861
delay_ws-100,102175.09999999404,1000,1000,1000,101.70530000016093,0.7838889653832071,0.0247887456328382,0.04858594144036287,101.69999998807907,101,102.30000001192093,100.39999997615814,104.25000002980232,104.30000001192093,100.39999997615814
delay_ws-150,152524,1000,1000,1000,151.97580000010132,0.8259869007705378,0.026119999238983876,0.051195198508408396,152.09999999403954,151.2000000178814,152.59999999403954,150.40000000596046,154.69999995827675,154.69999998807907,150.40000000596046
delay_ws-200,202539.59999999404,1000,1000,1000,202.01289999964834,0.899968660606274,0.028459507902868785,0.05578063548962282,202,201.19999998807907,202.7999999821186,200.5,205.1999999731779,205.5,200.5
delay_ws-250,252901,1000,1000,1000,252.30660000044108,0.9182246127741461,0.02903681179992443,0.05691215112785188,252.40000000596046,251.5,253,250.60000002384186,255.25,259.7999999821186,250.60000002384186
delay_ws-300,303081,1000,1000,1000,302.5678000000417,13.517419248974045,0.4274583291416066,0.837818325117549,301.80000001192093,301.19999998807907,302.7999999821186,300.5,305.1999999731779,604.3999999761581,300.5
