{
    "name": "Undergrad Thesis LaTeX",
    "dockerComposeFile": [
        "docker-compose.yml"
    ],
    "service": "texlive",
    "runServices": [
        "texlive"
    ],
    "shutdownAction": "stopCompose",
    "workspaceFolder": "/skripsi/document",
    "extensions": [
        "james-yu.latex-workshop",
        "eamodio.gitlens",
        "stkb.rewrap"
    ]
}